[14-Oct-2015 09:08:55 UTC] PHP Warning:  include(modules/formulary/utils/functions.inc.php): failed to open stream: No such file or directory in /home/ubuntu/workspace/flat-theme-free-responsive-multipurpose-site-template/modules/formulary/controller/controller_formulary.class.php on line 5
[14-Oct-2015 09:08:55 UTC] PHP Stack trace:
[14-Oct-2015 09:08:55 UTC] PHP   1. {main}() /home/ubuntu/workspace/flat-theme-free-responsive-multipurpose-site-template/modules/formulary/controller/controller_formulary.class.php:0
[14-Oct-2015 09:08:55 UTC] PHP Warning:  include(): Failed opening 'modules/formulary/utils/functions.inc.php' for inclusion (include_path='.:/usr/share/php:/usr/share/pear') in /home/ubuntu/workspace/flat-theme-free-responsive-multipurpose-site-template/modules/formulary/controller/controller_formulary.class.php on line 5
[14-Oct-2015 09:08:55 UTC] PHP Stack trace:
[14-Oct-2015 09:08:55 UTC] PHP   1. {main}() /home/ubuntu/workspace/flat-theme-free-responsive-multipurpose-site-template/modules/formulary/controller/controller_formulary.class.php:0
[14-Oct-2015 09:08:55 UTC] PHP Warning:  include(utils/upload.php): failed to open stream: No such file or directory in /home/ubuntu/workspace/flat-theme-free-responsive-multipurpose-site-template/modules/formulary/controller/controller_formulary.class.php on line 6
[14-Oct-2015 09:08:55 UTC] PHP Stack trace:
[14-Oct-2015 09:08:55 UTC] PHP   1. {main}() /home/ubuntu/workspace/flat-theme-free-responsive-multipurpose-site-template/modules/formulary/controller/controller_formulary.class.php:0
[14-Oct-2015 09:08:55 UTC] PHP Warning:  include(): Failed opening 'utils/upload.php' for inclusion (include_path='.:/usr/share/php:/usr/share/pear') in /home/ubuntu/workspace/flat-theme-free-responsive-multipurpose-site-template/modules/formulary/controller/controller_formulary.class.php on line 6
[14-Oct-2015 09:08:55 UTC] PHP Stack trace:
[14-Oct-2015 09:08:55 UTC] PHP   1. {main}() /home/ubuntu/workspace/flat-theme-free-responsive-multipurpose-site-template/modules/formulary/controller/controller_formulary.class.php:0
[14-Oct-2015 09:08:55 UTC] PHP Fatal error:  Call to undefined function validate_prod() in /home/ubuntu/workspace/flat-theme-free-responsive-multipurpose-site-template/modules/formulary/controller/controller_formulary.class.php on line 19
[14-Oct-2015 09:08:55 UTC] PHP Stack trace:
[14-Oct-2015 09:08:55 UTC] PHP   1. {main}() /home/ubuntu/workspace/flat-theme-free-responsive-multipurpose-site-template/modules/formulary/controller/controller_formulary.class.php:0
[14-Oct-2015 09:08:55 UTC] PHP   2. alta_prod() /home/ubuntu/workspace/flat-theme-free-responsive-multipurpose-site-template/modules/formulary/controller/controller_formulary.class.php:9
[14-Oct-2015 09:09:48 UTC] PHP Warning:  include(modules/formulary/utils/functions.inc.php): failed to open stream: No such file or directory in /home/ubuntu/workspace/flat-theme-free-responsive-multipurpose-site-template/modules/formulary/controller/controller_formulary.class.php on line 5
[14-Oct-2015 09:09:48 UTC] PHP Stack trace:
[14-Oct-2015 09:09:48 UTC] PHP   1. {main}() /home/ubuntu/workspace/flat-theme-free-responsive-multipurpose-site-template/modules/formulary/controller/controller_formulary.class.php:0
[14-Oct-2015 09:09:48 UTC] PHP Warning:  include(): Failed opening 'modules/formulary/utils/functions.inc.php' for inclusion (include_path='.:/usr/share/php:/usr/share/pear') in /home/ubuntu/workspace/flat-theme-free-responsive-multipurpose-site-template/modules/formulary/controller/controller_formulary.class.php on line 5
[14-Oct-2015 09:09:48 UTC] PHP Stack trace:
[14-Oct-2015 09:09:48 UTC] PHP   1. {main}() /home/ubuntu/workspace/flat-theme-free-responsive-multipurpose-site-template/modules/formulary/controller/controller_formulary.class.php:0
[14-Oct-2015 09:09:48 UTC] PHP Warning:  include(utils/upload.php): failed to open stream: No such file or directory in /home/ubuntu/workspace/flat-theme-free-responsive-multipurpose-site-template/modules/formulary/controller/controller_formulary.class.php on line 6
[14-Oct-2015 09:09:48 UTC] PHP Stack trace:
[14-Oct-2015 09:09:48 UTC] PHP   1. {main}() /home/ubuntu/workspace/flat-theme-free-responsive-multipurpose-site-template/modules/formulary/controller/controller_formulary.class.php:0
[14-Oct-2015 09:09:48 UTC] PHP Warning:  include(): Failed opening 'utils/upload.php' for inclusion (include_path='.:/usr/share/php:/usr/share/pear') in /home/ubuntu/workspace/flat-theme-free-responsive-multipurpose-site-template/modules/formulary/controller/controller_formulary.class.php on line 6
[14-Oct-2015 09:09:48 UTC] PHP Stack trace:
[14-Oct-2015 09:09:48 UTC] PHP   1. {main}() /home/ubuntu/workspace/flat-theme-free-responsive-multipurpose-site-template/modules/formulary/controller/controller_formulary.class.php:0
[14-Oct-2015 09:09:48 UTC] PHP Fatal error:  Call to undefined function validate_prod() in /home/ubuntu/workspace/flat-theme-free-responsive-multipurpose-site-template/modules/formulary/controller/controller_formulary.class.php on line 19
[14-Oct-2015 09:09:48 UTC] PHP Stack trace:
[14-Oct-2015 09:09:48 UTC] PHP   1. {main}() /home/ubuntu/workspace/flat-theme-free-responsive-multipurpose-site-template/modules/formulary/controller/controller_formulary.class.php:0
[14-Oct-2015 09:09:48 UTC] PHP   2. alta_prod() /home/ubuntu/workspace/flat-theme-free-responsive-multipurpose-site-template/modules/formulary/controller/controller_formulary.class.php:9
[14-Oct-2015 09:11:44 UTC] PHP Warning:  include(modules/formulary/utils/functions.inc.php): failed to open stream: No such file or directory in /home/ubuntu/workspace/flat-theme-free-responsive-multipurpose-site-template/modules/formulary/controller/controller_formulary.class.php on line 5
[14-Oct-2015 09:11:44 UTC] PHP Stack trace:
[14-Oct-2015 09:11:44 UTC] PHP   1. {main}() /home/ubuntu/workspace/flat-theme-free-responsive-multipurpose-site-template/modules/formulary/controller/controller_formulary.class.php:0
[14-Oct-2015 09:11:44 UTC] PHP Warning:  include(): Failed opening 'modules/formulary/utils/functions.inc.php' for inclusion (include_path='.:/usr/share/php:/usr/share/pear') in /home/ubuntu/workspace/flat-theme-free-responsive-multipurpose-site-template/modules/formulary/controller/controller_formulary.class.php on line 5
[14-Oct-2015 09:11:44 UTC] PHP Stack trace:
[14-Oct-2015 09:11:44 UTC] PHP   1. {main}() /home/ubuntu/workspace/flat-theme-free-responsive-multipurpose-site-template/modules/formulary/controller/controller_formulary.class.php:0
[14-Oct-2015 09:11:44 UTC] PHP Warning:  include(utils/upload.php): failed to open stream: No such file or directory in /home/ubuntu/workspace/flat-theme-free-responsive-multipurpose-site-template/modules/formulary/controller/controller_formulary.class.php on line 6
[14-Oct-2015 09:11:44 UTC] PHP Stack trace:
[14-Oct-2015 09:11:44 UTC] PHP   1. {main}() /home/ubuntu/workspace/flat-theme-free-responsive-multipurpose-site-template/modules/formulary/controller/controller_formulary.class.php:0
[14-Oct-2015 09:11:44 UTC] PHP Warning:  include(): Failed opening 'utils/upload.php' for inclusion (include_path='.:/usr/share/php:/usr/share/pear') in /home/ubuntu/workspace/flat-theme-free-responsive-multipurpose-site-template/modules/formulary/controller/controller_formulary.class.php on line 6
[14-Oct-2015 09:11:44 UTC] PHP Stack trace:
[14-Oct-2015 09:11:44 UTC] PHP   1. {main}() /home/ubuntu/workspace/flat-theme-free-responsive-multipurpose-site-template/modules/formulary/controller/controller_formulary.class.php:0
[14-Oct-2015 09:11:44 UTC] PHP Fatal error:  Call to undefined function validate_prod() in /home/ubuntu/workspace/flat-theme-free-responsive-multipurpose-site-template/modules/formulary/controller/controller_formulary.class.php on line 19
[14-Oct-2015 09:11:44 UTC] PHP Stack trace:
[14-Oct-2015 09:11:44 UTC] PHP   1. {main}() /home/ubuntu/workspace/flat-theme-free-responsive-multipurpose-site-template/modules/formulary/controller/controller_formulary.class.php:0
[14-Oct-2015 09:11:44 UTC] PHP   2. alta_prod() /home/ubuntu/workspace/flat-theme-free-responsive-multipurpose-site-template/modules/formulary/controller/controller_formulary.class.php:9
[14-Oct-2015 09:13:25 UTC] PHP Warning:  include(utils/upload.php): failed to open stream: No such file or directory in /home/ubuntu/workspace/flat-theme-free-responsive-multipurpose-site-template/modules/formulary/controller/controller_formulary.class.php on line 6
[14-Oct-2015 09:13:25 UTC] PHP Stack trace:
[14-Oct-2015 09:13:25 UTC] PHP   1. {main}() /home/ubuntu/workspace/flat-theme-free-responsive-multipurpose-site-template/modules/formulary/controller/controller_formulary.class.php:0
[14-Oct-2015 09:13:25 UTC] PHP Warning:  include(): Failed opening 'utils/upload.php' for inclusion (include_path='.:/usr/share/php:/usr/share/pear') in /home/ubuntu/workspace/flat-theme-free-responsive-multipurpose-site-template/modules/formulary/controller/controller_formulary.class.php on line 6
[14-Oct-2015 09:13:25 UTC] PHP Stack trace:
[14-Oct-2015 09:13:25 UTC] PHP   1. {main}() /home/ubuntu/workspace/flat-theme-free-responsive-multipurpose-site-template/modules/formulary/controller/controller_formulary.class.php:0
[14-Oct-2015 09:13:25 UTC] PHP Fatal error:  Call to undefined function upload_files() in /home/ubuntu/workspace/flat-theme-free-responsive-multipurpose-site-template/modules/formulary/controller/controller_formulary.class.php on line 22
[14-Oct-2015 09:13:25 UTC] PHP Stack trace:
[14-Oct-2015 09:13:25 UTC] PHP   1. {main}() /home/ubuntu/workspace/flat-theme-free-responsive-multipurpose-site-template/modules/formulary/controller/controller_formulary.class.php:0
[14-Oct-2015 09:13:25 UTC] PHP   2. alta_prod() /home/ubuntu/workspace/flat-theme-free-responsive-multipurpose-site-template/modules/formulary/controller/controller_formulary.class.php:9
[14-Oct-2015 09:14:56 UTC] PHP Warning:  include(../utils/upload.php): failed to open stream: No such file or directory in /home/ubuntu/workspace/flat-theme-free-responsive-multipurpose-site-template/modules/formulary/controller/controller_formulary.class.php on line 4
[14-Oct-2015 09:14:56 UTC] PHP Stack trace:
[14-Oct-2015 09:14:56 UTC] PHP   1. {main}() /home/ubuntu/workspace/flat-theme-free-responsive-multipurpose-site-template/modules/formulary/controller/controller_formulary.class.php:0
[14-Oct-2015 09:14:56 UTC] PHP Warning:  include(): Failed opening '../utils/upload.php' for inclusion (include_path='.:/usr/share/php:/usr/share/pear') in /home/ubuntu/workspace/flat-theme-free-responsive-multipurpose-site-template/modules/formulary/controller/controller_formulary.class.php on line 4
[14-Oct-2015 09:14:56 UTC] PHP Stack trace:
[14-Oct-2015 09:14:56 UTC] PHP   1. {main}() /home/ubuntu/workspace/flat-theme-free-responsive-multipurpose-site-template/modules/formulary/controller/controller_formulary.class.php:0
[14-Oct-2015 09:14:56 UTC] PHP Fatal error:  Call to undefined function upload_files() in /home/ubuntu/workspace/flat-theme-free-responsive-multipurpose-site-template/modules/formulary/controller/controller_formulary.class.php on line 17
[14-Oct-2015 09:14:56 UTC] PHP Stack trace:
[14-Oct-2015 09:14:56 UTC] PHP   1. {main}() /home/ubuntu/workspace/flat-theme-free-responsive-multipurpose-site-template/modules/formulary/controller/controller_formulary.class.php:0
[14-Oct-2015 09:14:56 UTC] PHP   2. alta_prod() /home/ubuntu/workspace/flat-theme-free-responsive-multipurpose-site-template/modules/formulary/controller/controller_formulary.class.php:7
[14-Oct-2015 09:17:51 UTC] PHP Warning:  include(../../utils/upload.php): failed to open stream: No such file or directory in /home/ubuntu/workspace/flat-theme-free-responsive-multipurpose-site-template/modules/formulary/controller/controller_formulary.class.php on line 4
[14-Oct-2015 09:17:51 UTC] PHP Stack trace:
[14-Oct-2015 09:17:51 UTC] PHP   1. {main}() /home/ubuntu/workspace/flat-theme-free-responsive-multipurpose-site-template/modules/formulary/controller/controller_formulary.class.php:0
[14-Oct-2015 09:17:51 UTC] PHP Warning:  include(): Failed opening '../../utils/upload.php' for inclusion (include_path='.:/usr/share/php:/usr/share/pear') in /home/ubuntu/workspace/flat-theme-free-responsive-multipurpose-site-template/modules/formulary/controller/controller_formulary.class.php on line 4
[14-Oct-2015 09:17:51 UTC] PHP Stack trace:
[14-Oct-2015 09:17:51 UTC] PHP   1. {main}() /home/ubuntu/workspace/flat-theme-free-responsive-multipurpose-site-template/modules/formulary/controller/controller_formulary.class.php:0
[14-Oct-2015 09:17:51 UTC] PHP Fatal error:  Call to undefined function upload_files() in /home/ubuntu/workspace/flat-theme-free-responsive-multipurpose-site-template/modules/formulary/controller/controller_formulary.class.php on line 17
[14-Oct-2015 09:17:51 UTC] PHP Stack trace:
[14-Oct-2015 09:17:51 UTC] PHP   1. {main}() /home/ubuntu/workspace/flat-theme-free-responsive-multipurpose-site-template/modules/formulary/controller/controller_formulary.class.php:0
[14-Oct-2015 09:17:51 UTC] PHP   2. alta_prod() /home/ubuntu/workspace/flat-theme-free-responsive-multipurpose-site-template/modules/formulary/controller/controller_formulary.class.php:7
[14-Oct-2015 09:18:31 UTC] PHP Warning:  include(utils/upload.php): failed to open stream: No such file or directory in /home/ubuntu/workspace/flat-theme-free-responsive-multipurpose-site-template/modules/formulary/controller/controller_formulary.class.php on line 4
[14-Oct-2015 09:18:31 UTC] PHP Stack trace:
[14-Oct-2015 09:18:31 UTC] PHP   1. {main}() /home/ubuntu/workspace/flat-theme-free-responsive-multipurpose-site-template/modules/formulary/controller/controller_formulary.class.php:0
[14-Oct-2015 09:18:31 UTC] PHP Warning:  include(): Failed opening 'utils/upload.php' for inclusion (include_path='.:/usr/share/php:/usr/share/pear') in /home/ubuntu/workspace/flat-theme-free-responsive-multipurpose-site-template/modules/formulary/controller/controller_formulary.class.php on line 4
[14-Oct-2015 09:18:31 UTC] PHP Stack trace:
[14-Oct-2015 09:18:31 UTC] PHP   1. {main}() /home/ubuntu/workspace/flat-theme-free-responsive-multipurpose-site-template/modules/formulary/controller/controller_formulary.class.php:0
[14-Oct-2015 09:18:31 UTC] PHP Fatal error:  Call to undefined function upload_files() in /home/ubuntu/workspace/flat-theme-free-responsive-multipurpose-site-template/modules/formulary/controller/controller_formulary.class.php on line 17
[14-Oct-2015 09:18:31 UTC] PHP Stack trace:
[14-Oct-2015 09:18:31 UTC] PHP   1. {main}() /home/ubuntu/workspace/flat-theme-free-responsive-multipurpose-site-template/modules/formulary/controller/controller_formulary.class.php:0
[14-Oct-2015 09:18:31 UTC] PHP   2. alta_prod() /home/ubuntu/workspace/flat-theme-free-responsive-multipurpose-site-template/modules/formulary/controller/controller_formulary.class.php:7
[14-Oct-2015 09:19:28 UTC] PHP Warning:  include(utils/upload.php): failed to open stream: No such file or directory in /home/ubuntu/workspace/flat-theme-free-responsive-multipurpose-site-template/modules/formulary/controller/controller_formulary.class.php on line 4
[14-Oct-2015 09:19:28 UTC] PHP Stack trace:
[14-Oct-2015 09:19:28 UTC] PHP   1. {main}() /home/ubuntu/workspace/flat-theme-free-responsive-multipurpose-site-template/modules/formulary/controller/controller_formulary.class.php:0
[14-Oct-2015 09:19:28 UTC] PHP Warning:  include(): Failed opening 'utils/upload.php' for inclusion (include_path='.:/usr/share/php:/usr/share/pear') in /home/ubuntu/workspace/flat-theme-free-responsive-multipurpose-site-template/modules/formulary/controller/controller_formulary.class.php on line 4
[14-Oct-2015 09:19:28 UTC] PHP Stack trace:
[14-Oct-2015 09:19:28 UTC] PHP   1. {main}() /home/ubuntu/workspace/flat-theme-free-responsive-multipurpose-site-template/modules/formulary/controller/controller_formulary.class.php:0
[14-Oct-2015 09:19:28 UTC] PHP Fatal error:  Call to undefined function upload_files() in /home/ubuntu/workspace/flat-theme-free-responsive-multipurpose-site-template/modules/formulary/controller/controller_formulary.class.php on line 17
[14-Oct-2015 09:19:28 UTC] PHP Stack trace:
[14-Oct-2015 09:19:28 UTC] PHP   1. {main}() /home/ubuntu/workspace/flat-theme-free-responsive-multipurpose-site-template/modules/formulary/controller/controller_formulary.class.php:0
[14-Oct-2015 09:19:28 UTC] PHP   2. alta_prod() /home/ubuntu/workspace/flat-theme-free-responsive-multipurpose-site-template/modules/formulary/controller/controller_formulary.class.php:7
[14-Oct-2015 09:20:03 UTC] PHP Warning:  include(./utils/upload.php): failed to open stream: No such file or directory in /home/ubuntu/workspace/flat-theme-free-responsive-multipurpose-site-template/modules/formulary/controller/controller_formulary.class.php on line 4
[14-Oct-2015 09:20:03 UTC] PHP Stack trace:
[14-Oct-2015 09:20:03 UTC] PHP   1. {main}() /home/ubuntu/workspace/flat-theme-free-responsive-multipurpose-site-template/modules/formulary/controller/controller_formulary.class.php:0
[14-Oct-2015 09:20:03 UTC] PHP Warning:  include(): Failed opening './utils/upload.php' for inclusion (include_path='.:/usr/share/php:/usr/share/pear') in /home/ubuntu/workspace/flat-theme-free-responsive-multipurpose-site-template/modules/formulary/controller/controller_formulary.class.php on line 4
[14-Oct-2015 09:20:03 UTC] PHP Stack trace:
[14-Oct-2015 09:20:03 UTC] PHP   1. {main}() /home/ubuntu/workspace/flat-theme-free-responsive-multipurpose-site-template/modules/formulary/controller/controller_formulary.class.php:0
[14-Oct-2015 09:20:03 UTC] PHP Fatal error:  Call to undefined function upload_files() in /home/ubuntu/workspace/flat-theme-free-responsive-multipurpose-site-template/modules/formulary/controller/controller_formulary.class.php on line 17
[14-Oct-2015 09:20:03 UTC] PHP Stack trace:
[14-Oct-2015 09:20:03 UTC] PHP   1. {main}() /home/ubuntu/workspace/flat-theme-free-responsive-multipurpose-site-template/modules/formulary/controller/controller_formulary.class.php:0
[14-Oct-2015 09:20:03 UTC] PHP   2. alta_prod() /home/ubuntu/workspace/flat-theme-free-responsive-multipurpose-site-template/modules/formulary/controller/controller_formulary.class.php:7
[14-Oct-2015 09:22:19 UTC] PHP Warning:  include(./utils/upload.php): failed to open stream: No such file or directory in /home/ubuntu/workspace/flat-theme-free-responsive-multipurpose-site-template/modules/formulary/controller/controller_formulary.class.php on line 4
[14-Oct-2015 09:22:19 UTC] PHP Stack trace:
[14-Oct-2015 09:22:19 UTC] PHP   1. {main}() /home/ubuntu/workspace/flat-theme-free-responsive-multipurpose-site-template/modules/formulary/controller/controller_formulary.class.php:0
[14-Oct-2015 09:22:19 UTC] PHP Warning:  include(): Failed opening './utils/upload.php' for inclusion (include_path='.:/usr/share/php:/usr/share/pear') in /home/ubuntu/workspace/flat-theme-free-responsive-multipurpose-site-template/modules/formulary/controller/controller_formulary.class.php on line 4
[14-Oct-2015 09:22:19 UTC] PHP Stack trace:
[14-Oct-2015 09:22:19 UTC] PHP   1. {main}() /home/ubuntu/workspace/flat-theme-free-responsive-multipurpose-site-template/modules/formulary/controller/controller_formulary.class.php:0
[14-Oct-2015 09:22:19 UTC] PHP Fatal error:  Call to undefined function upload_files() in /home/ubuntu/workspace/flat-theme-free-responsive-multipurpose-site-template/modules/formulary/controller/controller_formulary.class.php on line 17
[14-Oct-2015 09:22:19 UTC] PHP Stack trace:
[14-Oct-2015 09:22:19 UTC] PHP   1. {main}() /home/ubuntu/workspace/flat-theme-free-responsive-multipurpose-site-template/modules/formulary/controller/controller_formulary.class.php:0
[14-Oct-2015 09:22:19 UTC] PHP   2. alta_prod() /home/ubuntu/workspace/flat-theme-free-responsive-multipurpose-site-template/modules/formulary/controller/controller_formulary.class.php:7
[14-Oct-2015 09:23:39 UTC] PHP Warning:  include(utils/upload.php): failed to open stream: No such file or directory in /home/ubuntu/workspace/flat-theme-free-responsive-multipurpose-site-template/modules/formulary/controller/controller_formulary.class.php on line 4
[14-Oct-2015 09:23:39 UTC] PHP Stack trace:
[14-Oct-2015 09:23:39 UTC] PHP   1. {main}() /home/ubuntu/workspace/flat-theme-free-responsive-multipurpose-site-template/modules/formulary/controller/controller_formulary.class.php:0
[14-Oct-2015 09:23:39 UTC] PHP Warning:  include(): Failed opening 'utils/upload.php' for inclusion (include_path='.:/usr/share/php:/usr/share/pear') in /home/ubuntu/workspace/flat-theme-free-responsive-multipurpose-site-template/modules/formulary/controller/controller_formulary.class.php on line 4
[14-Oct-2015 09:23:39 UTC] PHP Stack trace:
[14-Oct-2015 09:23:39 UTC] PHP   1. {main}() /home/ubuntu/workspace/flat-theme-free-responsive-multipurpose-site-template/modules/formulary/controller/controller_formulary.class.php:0
[14-Oct-2015 09:23:39 UTC] PHP Fatal error:  Call to undefined function upload_files() in /home/ubuntu/workspace/flat-theme-free-responsive-multipurpose-site-template/modules/formulary/controller/controller_formulary.class.php on line 17
[14-Oct-2015 09:23:39 UTC] PHP Stack trace:
[14-Oct-2015 09:23:39 UTC] PHP   1. {main}() /home/ubuntu/workspace/flat-theme-free-responsive-multipurpose-site-template/modules/formulary/controller/controller_formulary.class.php:0
[14-Oct-2015 09:23:39 UTC] PHP   2. alta_prod() /home/ubuntu/workspace/flat-theme-free-responsive-multipurpose-site-template/modules/formulary/controller/controller_formulary.class.php:7
[14-Oct-2015 09:25:36 UTC] PHP Warning:  include(utils/upload.php): failed to open stream: No such file or directory in /home/ubuntu/workspace/flat-theme-free-responsive-multipurpose-site-template/modules/formulary/controller/controller_formulary.class.php on line 4
[14-Oct-2015 09:25:36 UTC] PHP Stack trace:
[14-Oct-2015 09:25:36 UTC] PHP   1. {main}() /home/ubuntu/workspace/flat-theme-free-responsive-multipurpose-site-template/modules/formulary/controller/controller_formulary.class.php:0
[14-Oct-2015 09:25:36 UTC] PHP Warning:  include(): Failed opening 'utils/upload.php' for inclusion (include_path='.:/usr/share/php:/usr/share/pear') in /home/ubuntu/workspace/flat-theme-free-responsive-multipurpose-site-template/modules/formulary/controller/controller_formulary.class.php on line 4
[14-Oct-2015 09:25:36 UTC] PHP Stack trace:
[14-Oct-2015 09:25:36 UTC] PHP   1. {main}() /home/ubuntu/workspace/flat-theme-free-responsive-multipurpose-site-template/modules/formulary/controller/controller_formulary.class.php:0
[14-Oct-2015 09:25:36 UTC] PHP Fatal error:  Call to undefined function upload_files() in /home/ubuntu/workspace/flat-theme-free-responsive-multipurpose-site-template/modules/formulary/controller/controller_formulary.class.php on line 17
[14-Oct-2015 09:25:36 UTC] PHP Stack trace:
[14-Oct-2015 09:25:36 UTC] PHP   1. {main}() /home/ubuntu/workspace/flat-theme-free-responsive-multipurpose-site-template/modules/formulary/controller/controller_formulary.class.php:0
[14-Oct-2015 09:25:36 UTC] PHP   2. alta_prod() /home/ubuntu/workspace/flat-theme-free-responsive-multipurpose-site-template/modules/formulary/controller/controller_formulary.class.php:7
[14-Oct-2015 09:26:43 UTC] PHP Warning:  include(plantillaweb_2/flat-theme-free-responsive-multipurpose-site-template/utils/upload.php): failed to open stream: No such file or directory in /home/ubuntu/workspace/flat-theme-free-responsive-multipurpose-site-template/modules/formulary/controller/controller_formulary.class.php on line 4
[14-Oct-2015 09:26:43 UTC] PHP Stack trace:
[14-Oct-2015 09:26:43 UTC] PHP   1. {main}() /home/ubuntu/workspace/flat-theme-free-responsive-multipurpose-site-template/modules/formulary/controller/controller_formulary.class.php:0
[14-Oct-2015 09:26:43 UTC] PHP Warning:  include(): Failed opening 'plantillaweb_2/flat-theme-free-responsive-multipurpose-site-template/utils/upload.php' for inclusion (include_path='.:/usr/share/php:/usr/share/pear') in /home/ubuntu/workspace/flat-theme-free-responsive-multipurpose-site-template/modules/formulary/controller/controller_formulary.class.php on line 4
[14-Oct-2015 09:26:43 UTC] PHP Stack trace:
[14-Oct-2015 09:26:43 UTC] PHP   1. {main}() /home/ubuntu/workspace/flat-theme-free-responsive-multipurpose-site-template/modules/formulary/controller/controller_formulary.class.php:0
[14-Oct-2015 09:26:43 UTC] PHP Fatal error:  Call to undefined function upload_files() in /home/ubuntu/workspace/flat-theme-free-responsive-multipurpose-site-template/modules/formulary/controller/controller_formulary.class.php on line 17
[14-Oct-2015 09:26:43 UTC] PHP Stack trace:
[14-Oct-2015 09:26:43 UTC] PHP   1. {main}() /home/ubuntu/workspace/flat-theme-free-responsive-multipurpose-site-template/modules/formulary/controller/controller_formulary.class.php:0
[14-Oct-2015 09:26:43 UTC] PHP   2. alta_prod() /home/ubuntu/workspace/flat-theme-free-responsive-multipurpose-site-template/modules/formulary/controller/controller_formulary.class.php:7
[14-Oct-2015 09:28:18 UTC] PHP Warning:  include(../utils/upload.php): failed to open stream: No such file or directory in /home/ubuntu/workspace/flat-theme-free-responsive-multipurpose-site-template/modules/formulary/controller/controller_formulary.class.php on line 4
[14-Oct-2015 09:28:18 UTC] PHP Stack trace:
[14-Oct-2015 09:28:18 UTC] PHP   1. {main}() /home/ubuntu/workspace/flat-theme-free-responsive-multipurpose-site-template/modules/formulary/controller/controller_formulary.class.php:0
[14-Oct-2015 09:28:18 UTC] PHP Warning:  include(): Failed opening '../utils/upload.php' for inclusion (include_path='.:/usr/share/php:/usr/share/pear') in /home/ubuntu/workspace/flat-theme-free-responsive-multipurpose-site-template/modules/formulary/controller/controller_formulary.class.php on line 4
[14-Oct-2015 09:28:18 UTC] PHP Stack trace:
[14-Oct-2015 09:28:18 UTC] PHP   1. {main}() /home/ubuntu/workspace/flat-theme-free-responsive-multipurpose-site-template/modules/formulary/controller/controller_formulary.class.php:0
[14-Oct-2015 09:28:18 UTC] PHP Fatal error:  Call to undefined function upload_files() in /home/ubuntu/workspace/flat-theme-free-responsive-multipurpose-site-template/modules/formulary/controller/controller_formulary.class.php on line 17
[14-Oct-2015 09:28:18 UTC] PHP Stack trace:
[14-Oct-2015 09:28:18 UTC] PHP   1. {main}() /home/ubuntu/workspace/flat-theme-free-responsive-multipurpose-site-template/modules/formulary/controller/controller_formulary.class.php:0
[14-Oct-2015 09:28:18 UTC] PHP   2. alta_prod() /home/ubuntu/workspace/flat-theme-free-responsive-multipurpose-site-template/modules/formulary/controller/controller_formulary.class.php:7
[14-Oct-2015 09:31:21 UTC] PHP Warning:  include(../utils/upload.php): failed to open stream: No such file or directory in /home/ubuntu/workspace/flat-theme-free-responsive-multipurpose-site-template/modules/formulary/controller/controller_formulary.class.php on line 4
[14-Oct-2015 09:31:21 UTC] PHP Stack trace:
[14-Oct-2015 09:31:21 UTC] PHP   1. {main}() /home/ubuntu/workspace/flat-theme-free-responsive-multipurpose-site-template/modules/formulary/controller/controller_formulary.class.php:0
[14-Oct-2015 09:31:21 UTC] PHP Warning:  include(): Failed opening '../utils/upload.php' for inclusion (include_path='.:/usr/share/php:/usr/share/pear') in /home/ubuntu/workspace/flat-theme-free-responsive-multipurpose-site-template/modules/formulary/controller/controller_formulary.class.php on line 4
[14-Oct-2015 09:31:21 UTC] PHP Stack trace:
[14-Oct-2015 09:31:21 UTC] PHP   1. {main}() /home/ubuntu/workspace/flat-theme-free-responsive-multipurpose-site-template/modules/formulary/controller/controller_formulary.class.php:0
[14-Oct-2015 09:31:21 UTC] PHP Fatal error:  Call to undefined function upload_files() in /home/ubuntu/workspace/flat-theme-free-responsive-multipurpose-site-template/modules/formulary/controller/controller_formulary.class.php on line 17
[14-Oct-2015 09:31:21 UTC] PHP Stack trace:
[14-Oct-2015 09:31:21 UTC] PHP   1. {main}() /home/ubuntu/workspace/flat-theme-free-responsive-multipurpose-site-template/modules/formulary/controller/controller_formulary.class.php:0
[14-Oct-2015 09:31:21 UTC] PHP   2. alta_prod() /home/ubuntu/workspace/flat-theme-free-responsive-multipurpose-site-template/modules/formulary/controller/controller_formulary.class.php:7
[14-Oct-2015 09:32:27 UTC] PHP Warning:  include(/utils/upload.php): failed to open stream: No such file or directory in /home/ubuntu/workspace/flat-theme-free-responsive-multipurpose-site-template/modules/formulary/controller/controller_formulary.class.php on line 4
[14-Oct-2015 09:32:27 UTC] PHP Stack trace:
[14-Oct-2015 09:32:27 UTC] PHP   1. {main}() /home/ubuntu/workspace/flat-theme-free-responsive-multipurpose-site-template/modules/formulary/controller/controller_formulary.class.php:0
[14-Oct-2015 09:32:27 UTC] PHP Warning:  include(): Failed opening '/utils/upload.php' for inclusion (include_path='.:/usr/share/php:/usr/share/pear') in /home/ubuntu/workspace/flat-theme-free-responsive-multipurpose-site-template/modules/formulary/controller/controller_formulary.class.php on line 4
[14-Oct-2015 09:32:27 UTC] PHP Stack trace:
[14-Oct-2015 09:32:27 UTC] PHP   1. {main}() /home/ubuntu/workspace/flat-theme-free-responsive-multipurpose-site-template/modules/formulary/controller/controller_formulary.class.php:0
[14-Oct-2015 09:32:27 UTC] PHP Fatal error:  Call to undefined function upload_files() in /home/ubuntu/workspace/flat-theme-free-responsive-multipurpose-site-template/modules/formulary/controller/controller_formulary.class.php on line 17
[14-Oct-2015 09:32:27 UTC] PHP Stack trace:
[14-Oct-2015 09:32:27 UTC] PHP   1. {main}() /home/ubuntu/workspace/flat-theme-free-responsive-multipurpose-site-template/modules/formulary/controller/controller_formulary.class.php:0
[14-Oct-2015 09:32:27 UTC] PHP   2. alta_prod() /home/ubuntu/workspace/flat-theme-free-responsive-multipurpose-site-template/modules/formulary/controller/controller_formulary.class.php:7
[14-Oct-2015 09:33:10 UTC] PHP Warning:  move_uploaded_file(../media/0.11867800 1444815190-flowers.png): failed to open stream: No such file or directory in /home/ubuntu/workspace/flat-theme-free-responsive-multipurpose-site-template/utils/upload.php on line 69
[14-Oct-2015 09:33:10 UTC] PHP Stack trace:
[14-Oct-2015 09:33:10 UTC] PHP   1. {main}() /home/ubuntu/workspace/flat-theme-free-responsive-multipurpose-site-template/modules/formulary/controller/controller_formulary.class.php:0
[14-Oct-2015 09:33:10 UTC] PHP   2. alta_prod() /home/ubuntu/workspace/flat-theme-free-responsive-multipurpose-site-template/modules/formulary/controller/controller_formulary.class.php:7
[14-Oct-2015 09:33:10 UTC] PHP   3. upload_files() /home/ubuntu/workspace/flat-theme-free-responsive-multipurpose-site-template/modules/formulary/controller/controller_formulary.class.php:17
[14-Oct-2015 09:33:10 UTC] PHP   4. move_uploaded_file() /home/ubuntu/workspace/flat-theme-free-responsive-multipurpose-site-template/utils/upload.php:69
[14-Oct-2015 09:33:10 UTC] PHP Warning:  move_uploaded_file(): Unable to move '/tmp/php91vIsH' to '../media/0.11867800 1444815190-flowers.png' in /home/ubuntu/workspace/flat-theme-free-responsive-multipurpose-site-template/utils/upload.php on line 69
[14-Oct-2015 09:33:10 UTC] PHP Stack trace:
[14-Oct-2015 09:33:10 UTC] PHP   1. {main}() /home/ubuntu/workspace/flat-theme-free-responsive-multipurpose-site-template/modules/formulary/controller/controller_formulary.class.php:0
[14-Oct-2015 09:33:10 UTC] PHP   2. alta_prod() /home/ubuntu/workspace/flat-theme-free-responsive-multipurpose-site-template/modules/formulary/controller/controller_formulary.class.php:7
[14-Oct-2015 09:33:10 UTC] PHP   3. upload_files() /home/ubuntu/workspace/flat-theme-free-responsive-multipurpose-site-template/modules/formulary/controller/controller_formulary.class.php:17
[14-Oct-2015 09:33:10 UTC] PHP   4. move_uploaded_file() /home/ubuntu/workspace/flat-theme-free-responsive-multipurpose-site-template/utils/upload.php:69
[14-Oct-2015 09:34:31 UTC] PHP Warning:  move_uploaded_file(../media/0.28408200 1444815271-flowers.png): failed to open stream: No such file or directory in /home/ubuntu/workspace/flat-theme-free-responsive-multipurpose-site-template/utils/upload.php on line 69
[14-Oct-2015 09:34:31 UTC] PHP Stack trace:
[14-Oct-2015 09:34:31 UTC] PHP   1. {main}() /home/ubuntu/workspace/flat-theme-free-responsive-multipurpose-site-template/modules/formulary/controller/controller_formulary.class.php:0
[14-Oct-2015 09:34:31 UTC] PHP   2. alta_prod() /home/ubuntu/workspace/flat-theme-free-responsive-multipurpose-site-template/modules/formulary/controller/controller_formulary.class.php:7
[14-Oct-2015 09:34:31 UTC] PHP   3. upload_files() /home/ubuntu/workspace/flat-theme-free-responsive-multipurpose-site-template/modules/formulary/controller/controller_formulary.class.php:17
[14-Oct-2015 09:34:31 UTC] PHP   4. move_uploaded_file() /home/ubuntu/workspace/flat-theme-free-responsive-multipurpose-site-template/utils/upload.php:69
[14-Oct-2015 09:34:31 UTC] PHP Warning:  move_uploaded_file(): Unable to move '/tmp/phpU5zHpE' to '../media/0.28408200 1444815271-flowers.png' in /home/ubuntu/workspace/flat-theme-free-responsive-multipurpose-site-template/utils/upload.php on line 69
[14-Oct-2015 09:34:31 UTC] PHP Stack trace:
[14-Oct-2015 09:34:31 UTC] PHP   1. {main}() /home/ubuntu/workspace/flat-theme-free-responsive-multipurpose-site-template/modules/formulary/controller/controller_formulary.class.php:0
[14-Oct-2015 09:34:31 UTC] PHP   2. alta_prod() /home/ubuntu/workspace/flat-theme-free-responsive-multipurpose-site-template/modules/formulary/controller/controller_formulary.class.php:7
[14-Oct-2015 09:34:31 UTC] PHP   3. upload_files() /home/ubuntu/workspace/flat-theme-free-responsive-multipurpose-site-template/modules/formulary/controller/controller_formulary.class.php:17
[14-Oct-2015 09:34:31 UTC] PHP   4. move_uploaded_file() /home/ubuntu/workspace/flat-theme-free-responsive-multipurpose-site-template/utils/upload.php:69
[14-Oct-2015 09:37:05 UTC] PHP Warning:  move_uploaded_file(../../media/0.69188700 1444815425-flowers.png): failed to open stream: No such file or directory in /home/ubuntu/workspace/flat-theme-free-responsive-multipurpose-site-template/utils/upload.php on line 69
[14-Oct-2015 09:37:05 UTC] PHP Stack trace:
[14-Oct-2015 09:37:05 UTC] PHP   1. {main}() /home/ubuntu/workspace/flat-theme-free-responsive-multipurpose-site-template/modules/formulary/controller/controller_formulary.class.php:0
[14-Oct-2015 09:37:05 UTC] PHP   2. alta_prod() /home/ubuntu/workspace/flat-theme-free-responsive-multipurpose-site-template/modules/formulary/controller/controller_formulary.class.php:7
[14-Oct-2015 09:37:05 UTC] PHP   3. upload_files() /home/ubuntu/workspace/flat-theme-free-responsive-multipurpose-site-template/modules/formulary/controller/controller_formulary.class.php:17
[14-Oct-2015 09:37:05 UTC] PHP   4. move_uploaded_file() /home/ubuntu/workspace/flat-theme-free-responsive-multipurpose-site-template/utils/upload.php:69
[14-Oct-2015 09:37:05 UTC] PHP Warning:  move_uploaded_file(): Unable to move '/tmp/phpzDEFAC' to '../../media/0.69188700 1444815425-flowers.png' in /home/ubuntu/workspace/flat-theme-free-responsive-multipurpose-site-template/utils/upload.php on line 69
[14-Oct-2015 09:37:05 UTC] PHP Stack trace:
[14-Oct-2015 09:37:05 UTC] PHP   1. {main}() /home/ubuntu/workspace/flat-theme-free-responsive-multipurpose-site-template/modules/formulary/controller/controller_formulary.class.php:0
[14-Oct-2015 09:37:05 UTC] PHP   2. alta_prod() /home/ubuntu/workspace/flat-theme-free-responsive-multipurpose-site-template/modules/formulary/controller/controller_formulary.class.php:7
[14-Oct-2015 09:37:05 UTC] PHP   3. upload_files() /home/ubuntu/workspace/flat-theme-free-responsive-multipurpose-site-template/modules/formulary/controller/controller_formulary.class.php:17
[14-Oct-2015 09:37:05 UTC] PHP   4. move_uploaded_file() /home/ubuntu/workspace/flat-theme-free-responsive-multipurpose-site-template/utils/upload.php:69
[14-Oct-2015 09:37:10 UTC] PHP Warning:  move_uploaded_file(../../media/0.10716800 1444815430-flowers.png): failed to open stream: No such file or directory in /home/ubuntu/workspace/flat-theme-free-responsive-multipurpose-site-template/utils/upload.php on line 69
[14-Oct-2015 09:37:10 UTC] PHP Stack trace:
[14-Oct-2015 09:37:10 UTC] PHP   1. {main}() /home/ubuntu/workspace/flat-theme-free-responsive-multipurpose-site-template/modules/formulary/controller/controller_formulary.class.php:0
[14-Oct-2015 09:37:10 UTC] PHP   2. alta_prod() /home/ubuntu/workspace/flat-theme-free-responsive-multipurpose-site-template/modules/formulary/controller/controller_formulary.class.php:7
[14-Oct-2015 09:37:10 UTC] PHP   3. upload_files() /home/ubuntu/workspace/flat-theme-free-responsive-multipurpose-site-template/modules/formulary/controller/controller_formulary.class.php:17
[14-Oct-2015 09:37:10 UTC] PHP   4. move_uploaded_file() /home/ubuntu/workspace/flat-theme-free-responsive-multipurpose-site-template/utils/upload.php:69
[14-Oct-2015 09:37:10 UTC] PHP Warning:  move_uploaded_file(): Unable to move '/tmp/phpIZnJPH' to '../../media/0.10716800 1444815430-flowers.png' in /home/ubuntu/workspace/flat-theme-free-responsive-multipurpose-site-template/utils/upload.php on line 69
[14-Oct-2015 09:37:10 UTC] PHP Stack trace:
[14-Oct-2015 09:37:10 UTC] PHP   1. {main}() /home/ubuntu/workspace/flat-theme-free-responsive-multipurpose-site-template/modules/formulary/controller/controller_formulary.class.php:0
[14-Oct-2015 09:37:10 UTC] PHP   2. alta_prod() /home/ubuntu/workspace/flat-theme-free-responsive-multipurpose-site-template/modules/formulary/controller/controller_formulary.class.php:7
[14-Oct-2015 09:37:10 UTC] PHP   3. upload_files() /home/ubuntu/workspace/flat-theme-free-responsive-multipurpose-site-template/modules/formulary/controller/controller_formulary.class.php:17
[14-Oct-2015 09:37:10 UTC] PHP   4. move_uploaded_file() /home/ubuntu/workspace/flat-theme-free-responsive-multipurpose-site-template/utils/upload.php:69
[14-Oct-2015 09:37:53 UTC] PHP Warning:  move_uploaded_file(./media/0.76761600 1444815473-flowers.png): failed to open stream: No such file or directory in /home/ubuntu/workspace/flat-theme-free-responsive-multipurpose-site-template/utils/upload.php on line 69
[14-Oct-2015 09:37:53 UTC] PHP Stack trace:
[14-Oct-2015 09:37:53 UTC] PHP   1. {main}() /home/ubuntu/workspace/flat-theme-free-responsive-multipurpose-site-template/modules/formulary/controller/controller_formulary.class.php:0
[14-Oct-2015 09:37:53 UTC] PHP   2. alta_prod() /home/ubuntu/workspace/flat-theme-free-responsive-multipurpose-site-template/modules/formulary/controller/controller_formulary.class.php:7
[14-Oct-2015 09:37:53 UTC] PHP   3. upload_files() /home/ubuntu/workspace/flat-theme-free-responsive-multipurpose-site-template/modules/formulary/controller/controller_formulary.class.php:17
[14-Oct-2015 09:37:53 UTC] PHP   4. move_uploaded_file() /home/ubuntu/workspace/flat-theme-free-responsive-multipurpose-site-template/utils/upload.php:69
[14-Oct-2015 09:37:53 UTC] PHP Warning:  move_uploaded_file(): Unable to move '/tmp/phppw9P2O' to './media/0.76761600 1444815473-flowers.png' in /home/ubuntu/workspace/flat-theme-free-responsive-multipurpose-site-template/utils/upload.php on line 69
[14-Oct-2015 09:37:53 UTC] PHP Stack trace:
[14-Oct-2015 09:37:53 UTC] PHP   1. {main}() /home/ubuntu/workspace/flat-theme-free-responsive-multipurpose-site-template/modules/formulary/controller/controller_formulary.class.php:0
[14-Oct-2015 09:37:53 UTC] PHP   2. alta_prod() /home/ubuntu/workspace/flat-theme-free-responsive-multipurpose-site-template/modules/formulary/controller/controller_formulary.class.php:7
[14-Oct-2015 09:37:53 UTC] PHP   3. upload_files() /home/ubuntu/workspace/flat-theme-free-responsive-multipurpose-site-template/modules/formulary/controller/controller_formulary.class.php:17
[14-Oct-2015 09:37:53 UTC] PHP   4. move_uploaded_file() /home/ubuntu/workspace/flat-theme-free-responsive-multipurpose-site-template/utils/upload.php:69
[14-Oct-2015 09:38:36 UTC] PHP Warning:  include(../utils/upload.php): failed to open stream: No such file or directory in /home/ubuntu/workspace/flat-theme-free-responsive-multipurpose-site-template/modules/formulary/controller/controller_formulary.class.php on line 4
[14-Oct-2015 09:38:36 UTC] PHP Stack trace:
[14-Oct-2015 09:38:36 UTC] PHP   1. {main}() /home/ubuntu/workspace/flat-theme-free-responsive-multipurpose-site-template/modules/formulary/controller/controller_formulary.class.php:0
[14-Oct-2015 09:38:36 UTC] PHP Warning:  include(): Failed opening '../utils/upload.php' for inclusion (include_path='.:/usr/share/php:/usr/share/pear') in /home/ubuntu/workspace/flat-theme-free-responsive-multipurpose-site-template/modules/formulary/controller/controller_formulary.class.php on line 4
[14-Oct-2015 09:38:36 UTC] PHP Stack trace:
[14-Oct-2015 09:38:36 UTC] PHP   1. {main}() /home/ubuntu/workspace/flat-theme-free-responsive-multipurpose-site-template/modules/formulary/controller/controller_formulary.class.php:0
[14-Oct-2015 09:38:36 UTC] PHP Fatal error:  Call to undefined function upload_files() in /home/ubuntu/workspace/flat-theme-free-responsive-multipurpose-site-template/modules/formulary/controller/controller_formulary.class.php on line 17
[14-Oct-2015 09:38:36 UTC] PHP Stack trace:
[14-Oct-2015 09:38:36 UTC] PHP   1. {main}() /home/ubuntu/workspace/flat-theme-free-responsive-multipurpose-site-template/modules/formulary/controller/controller_formulary.class.php:0
[14-Oct-2015 09:38:36 UTC] PHP   2. alta_prod() /home/ubuntu/workspace/flat-theme-free-responsive-multipurpose-site-template/modules/formulary/controller/controller_formulary.class.php:7
[14-Oct-2015 09:38:42 UTC] PHP Warning:  include(../utils/upload.php): failed to open stream: No such file or directory in /home/ubuntu/workspace/flat-theme-free-responsive-multipurpose-site-template/modules/formulary/controller/controller_formulary.class.php on line 4
[14-Oct-2015 09:38:42 UTC] PHP Stack trace:
[14-Oct-2015 09:38:42 UTC] PHP   1. {main}() /home/ubuntu/workspace/flat-theme-free-responsive-multipurpose-site-template/modules/formulary/controller/controller_formulary.class.php:0
[14-Oct-2015 09:38:42 UTC] PHP Warning:  include(): Failed opening '../utils/upload.php' for inclusion (include_path='.:/usr/share/php:/usr/share/pear') in /home/ubuntu/workspace/flat-theme-free-responsive-multipurpose-site-template/modules/formulary/controller/controller_formulary.class.php on line 4
[14-Oct-2015 09:38:42 UTC] PHP Stack trace:
[14-Oct-2015 09:38:42 UTC] PHP   1. {main}() /home/ubuntu/workspace/flat-theme-free-responsive-multipurpose-site-template/modules/formulary/controller/controller_formulary.class.php:0
[14-Oct-2015 09:38:42 UTC] PHP Fatal error:  Call to undefined function upload_files() in /home/ubuntu/workspace/flat-theme-free-responsive-multipurpose-site-template/modules/formulary/controller/controller_formulary.class.php on line 17
[14-Oct-2015 09:38:42 UTC] PHP Stack trace:
[14-Oct-2015 09:38:42 UTC] PHP   1. {main}() /home/ubuntu/workspace/flat-theme-free-responsive-multipurpose-site-template/modules/formulary/controller/controller_formulary.class.php:0
[14-Oct-2015 09:38:42 UTC] PHP   2. alta_prod() /home/ubuntu/workspace/flat-theme-free-responsive-multipurpose-site-template/modules/formulary/controller/controller_formulary.class.php:7
[14-Oct-2015 09:39:19 UTC] PHP Warning:  include(../utils/upload.php): failed to open stream: No such file or directory in /home/ubuntu/workspace/flat-theme-free-responsive-multipurpose-site-template/modules/formulary/controller/controller_formulary.class.php on line 4
[14-Oct-2015 09:39:19 UTC] PHP Stack trace:
[14-Oct-2015 09:39:19 UTC] PHP   1. {main}() /home/ubuntu/workspace/flat-theme-free-responsive-multipurpose-site-template/modules/formulary/controller/controller_formulary.class.php:0
[14-Oct-2015 09:39:19 UTC] PHP Warning:  include(): Failed opening '../utils/upload.php' for inclusion (include_path='.:/usr/share/php:/usr/share/pear') in /home/ubuntu/workspace/flat-theme-free-responsive-multipurpose-site-template/modules/formulary/controller/controller_formulary.class.php on line 4
[14-Oct-2015 09:39:19 UTC] PHP Stack trace:
[14-Oct-2015 09:39:19 UTC] PHP   1. {main}() /home/ubuntu/workspace/flat-theme-free-responsive-multipurpose-site-template/modules/formulary/controller/controller_formulary.class.php:0
[14-Oct-2015 09:39:19 UTC] PHP Fatal error:  Call to undefined function upload_files() in /home/ubuntu/workspace/flat-theme-free-responsive-multipurpose-site-template/modules/formulary/controller/controller_formulary.class.php on line 17
[14-Oct-2015 09:39:19 UTC] PHP Stack trace:
[14-Oct-2015 09:39:19 UTC] PHP   1. {main}() /home/ubuntu/workspace/flat-theme-free-responsive-multipurpose-site-template/modules/formulary/controller/controller_formulary.class.php:0
[14-Oct-2015 09:39:19 UTC] PHP   2. alta_prod() /home/ubuntu/workspace/flat-theme-free-responsive-multipurpose-site-template/modules/formulary/controller/controller_formulary.class.php:7
[14-Oct-2015 09:42:29 UTC] PHP Warning:  include(../utils/upload.php): failed to open stream: No such file or directory in /home/ubuntu/workspace/flat-theme-free-responsive-multipurpose-site-template/modules/formulary/controller/controller_formulary.class.php on line 4
[14-Oct-2015 09:42:29 UTC] PHP Stack trace:
[14-Oct-2015 09:42:29 UTC] PHP   1. {main}() /home/ubuntu/workspace/flat-theme-free-responsive-multipurpose-site-template/modules/formulary/controller/controller_formulary.class.php:0
[14-Oct-2015 09:42:29 UTC] PHP Warning:  include(): Failed opening '../utils/upload.php' for inclusion (include_path='.:/usr/share/php:/usr/share/pear') in /home/ubuntu/workspace/flat-theme-free-responsive-multipurpose-site-template/modules/formulary/controller/controller_formulary.class.php on line 4
[14-Oct-2015 09:42:29 UTC] PHP Stack trace:
[14-Oct-2015 09:42:29 UTC] PHP   1. {main}() /home/ubuntu/workspace/flat-theme-free-responsive-multipurpose-site-template/modules/formulary/controller/controller_formulary.class.php:0
[14-Oct-2015 09:42:29 UTC] PHP Fatal error:  Call to undefined function upload_files() in /home/ubuntu/workspace/flat-theme-free-responsive-multipurpose-site-template/modules/formulary/controller/controller_formulary.class.php on line 17
[14-Oct-2015 09:42:29 UTC] PHP Stack trace:
[14-Oct-2015 09:42:29 UTC] PHP   1. {main}() /home/ubuntu/workspace/flat-theme-free-responsive-multipurpose-site-template/modules/formulary/controller/controller_formulary.class.php:0
[14-Oct-2015 09:42:29 UTC] PHP   2. alta_prod() /home/ubuntu/workspace/flat-theme-free-responsive-multipurpose-site-template/modules/formulary/controller/controller_formulary.class.php:7
[14-Oct-2015 09:43:08 UTC] PHP Warning:  include(../utils/upload.php): failed to open stream: No such file or directory in /home/ubuntu/workspace/flat-theme-free-responsive-multipurpose-site-template/modules/formulary/controller/controller_formulary.class.php on line 5
[14-Oct-2015 09:43:08 UTC] PHP Stack trace:
[14-Oct-2015 09:43:08 UTC] PHP   1. {main}() /home/ubuntu/workspace/flat-theme-free-responsive-multipurpose-site-template/modules/formulary/controller/controller_formulary.class.php:0
[14-Oct-2015 09:43:08 UTC] PHP Warning:  include(): Failed opening '../utils/upload.php' for inclusion (include_path='.:/usr/share/php:/usr/share/pear') in /home/ubuntu/workspace/flat-theme-free-responsive-multipurpose-site-template/modules/formulary/controller/controller_formulary.class.php on line 5
[14-Oct-2015 09:43:08 UTC] PHP Stack trace:
[14-Oct-2015 09:43:08 UTC] PHP   1. {main}() /home/ubuntu/workspace/flat-theme-free-responsive-multipurpose-site-template/modules/formulary/controller/controller_formulary.class.php:0
[14-Oct-2015 09:43:08 UTC] PHP Fatal error:  Call to undefined function upload_files() in /home/ubuntu/workspace/flat-theme-free-responsive-multipurpose-site-template/modules/formulary/controller/controller_formulary.class.php on line 18
[14-Oct-2015 09:43:08 UTC] PHP Stack trace:
[14-Oct-2015 09:43:08 UTC] PHP   1. {main}() /home/ubuntu/workspace/flat-theme-free-responsive-multipurpose-site-template/modules/formulary/controller/controller_formulary.class.php:0
[14-Oct-2015 09:43:08 UTC] PHP   2. alta_prod() /home/ubuntu/workspace/flat-theme-free-responsive-multipurpose-site-template/modules/formulary/controller/controller_formulary.class.php:8
[14-Oct-2015 10:03:20 UTC] PHP Warning:  include(../utils/upload.php): failed to open stream: No such file or directory in /home/ubuntu/workspace/flat-theme-free-responsive-multipurpose-site-template/modules/formulary/controller/controller_formulary.class.php on line 4
[14-Oct-2015 10:03:20 UTC] PHP Stack trace:
[14-Oct-2015 10:03:20 UTC] PHP   1. {main}() /home/ubuntu/workspace/flat-theme-free-responsive-multipurpose-site-template/modules/formulary/controller/controller_formulary.class.php:0
[14-Oct-2015 10:03:20 UTC] PHP Warning:  include(): Failed opening '../utils/upload.php' for inclusion (include_path='.:/usr/share/php:/usr/share/pear') in /home/ubuntu/workspace/flat-theme-free-responsive-multipurpose-site-template/modules/formulary/controller/controller_formulary.class.php on line 4
[14-Oct-2015 10:03:20 UTC] PHP Stack trace:
[14-Oct-2015 10:03:20 UTC] PHP   1. {main}() /home/ubuntu/workspace/flat-theme-free-responsive-multipurpose-site-template/modules/formulary/controller/controller_formulary.class.php:0
[14-Oct-2015 10:03:20 UTC] PHP Fatal error:  Call to undefined function upload_files() in /home/ubuntu/workspace/flat-theme-free-responsive-multipurpose-site-template/modules/formulary/controller/controller_formulary.class.php on line 17
[14-Oct-2015 10:03:20 UTC] PHP Stack trace:
[14-Oct-2015 10:03:20 UTC] PHP   1. {main}() /home/ubuntu/workspace/flat-theme-free-responsive-multipurpose-site-template/modules/formulary/controller/controller_formulary.class.php:0
[14-Oct-2015 10:03:20 UTC] PHP   2. alta_prod() /home/ubuntu/workspace/flat-theme-free-responsive-multipurpose-site-template/modules/formulary/controller/controller_formulary.class.php:7
[14-Oct-2015 10:11:47 UTC] PHP Warning:  move_uploaded_file(../media/0.22511000 1444817507-flowers.png): failed to open stream: No such file or directory in /home/ubuntu/workspace/flat-theme-free-responsive-multipurpose-site-template/utils/upload.php on line 69
[14-Oct-2015 10:11:47 UTC] PHP Stack trace:
[14-Oct-2015 10:11:47 UTC] PHP   1. {main}() /home/ubuntu/workspace/flat-theme-free-responsive-multipurpose-site-template/modules/formulary/controller/controller_formulary.class.php:0
[14-Oct-2015 10:11:47 UTC] PHP   2. alta_prod() /home/ubuntu/workspace/flat-theme-free-responsive-multipurpose-site-template/modules/formulary/controller/controller_formulary.class.php:7
[14-Oct-2015 10:11:47 UTC] PHP   3. upload_files() /home/ubuntu/workspace/flat-theme-free-responsive-multipurpose-site-template/modules/formulary/controller/controller_formulary.class.php:17
[14-Oct-2015 10:11:47 UTC] PHP   4. move_uploaded_file() /home/ubuntu/workspace/flat-theme-free-responsive-multipurpose-site-template/utils/upload.php:69
[14-Oct-2015 10:11:47 UTC] PHP Warning:  move_uploaded_file(): Unable to move '/tmp/phpNx1Vlj' to '../media/0.22511000 1444817507-flowers.png' in /home/ubuntu/workspace/flat-theme-free-responsive-multipurpose-site-template/utils/upload.php on line 69
[14-Oct-2015 10:11:47 UTC] PHP Stack trace:
[14-Oct-2015 10:11:47 UTC] PHP   1. {main}() /home/ubuntu/workspace/flat-theme-free-responsive-multipurpose-site-template/modules/formulary/controller/controller_formulary.class.php:0
[14-Oct-2015 10:11:47 UTC] PHP   2. alta_prod() /home/ubuntu/workspace/flat-theme-free-responsive-multipurpose-site-template/modules/formulary/controller/controller_formulary.class.php:7
[14-Oct-2015 10:11:47 UTC] PHP   3. upload_files() /home/ubuntu/workspace/flat-theme-free-responsive-multipurpose-site-template/modules/formulary/controller/controller_formulary.class.php:17
[14-Oct-2015 10:11:47 UTC] PHP   4. move_uploaded_file() /home/ubuntu/workspace/flat-theme-free-responsive-multipurpose-site-template/utils/upload.php:69
[14-Oct-2015 10:12:55 UTC] PHP Warning:  move_uploaded_file(../../media/0.60850900 1444817575-flowers.png): failed to open stream: No such file or directory in /home/ubuntu/workspace/flat-theme-free-responsive-multipurpose-site-template/utils/upload.php on line 69
[14-Oct-2015 10:12:55 UTC] PHP Stack trace:
[14-Oct-2015 10:12:55 UTC] PHP   1. {main}() /home/ubuntu/workspace/flat-theme-free-responsive-multipurpose-site-template/modules/formulary/controller/controller_formulary.class.php:0
[14-Oct-2015 10:12:55 UTC] PHP   2. alta_prod() /home/ubuntu/workspace/flat-theme-free-responsive-multipurpose-site-template/modules/formulary/controller/controller_formulary.class.php:7
[14-Oct-2015 10:12:55 UTC] PHP   3. upload_files() /home/ubuntu/workspace/flat-theme-free-responsive-multipurpose-site-template/modules/formulary/controller/controller_formulary.class.php:17
[14-Oct-2015 10:12:55 UTC] PHP   4. move_uploaded_file() /home/ubuntu/workspace/flat-theme-free-responsive-multipurpose-site-template/utils/upload.php:69
[14-Oct-2015 10:12:55 UTC] PHP Warning:  move_uploaded_file(): Unable to move '/tmp/phpdi9Iev' to '../../media/0.60850900 1444817575-flowers.png' in /home/ubuntu/workspace/flat-theme-free-responsive-multipurpose-site-template/utils/upload.php on line 69
[14-Oct-2015 10:12:55 UTC] PHP Stack trace:
[14-Oct-2015 10:12:55 UTC] PHP   1. {main}() /home/ubuntu/workspace/flat-theme-free-responsive-multipurpose-site-template/modules/formulary/controller/controller_formulary.class.php:0
[14-Oct-2015 10:12:55 UTC] PHP   2. alta_prod() /home/ubuntu/workspace/flat-theme-free-responsive-multipurpose-site-template/modules/formulary/controller/controller_formulary.class.php:7
[14-Oct-2015 10:12:55 UTC] PHP   3. upload_files() /home/ubuntu/workspace/flat-theme-free-responsive-multipurpose-site-template/modules/formulary/controller/controller_formulary.class.php:17
[14-Oct-2015 10:12:55 UTC] PHP   4. move_uploaded_file() /home/ubuntu/workspace/flat-theme-free-responsive-multipurpose-site-template/utils/upload.php:69
[14-Oct-2015 10:32:30 UTC] PHP Warning:  move_uploaded_file(../media/0.59072300 1444818750-flowers.png): failed to open stream: No such file or directory in /home/ubuntu/workspace/flat-theme-free-responsive-multipurpose-site-template/utils/upload.php on line 69
[14-Oct-2015 10:32:30 UTC] PHP Stack trace:
[14-Oct-2015 10:32:30 UTC] PHP   1. {main}() /home/ubuntu/workspace/flat-theme-free-responsive-multipurpose-site-template/modules/formulary/controller/controller_formulary.class.php:0
[14-Oct-2015 10:32:30 UTC] PHP   2. alta_prod() /home/ubuntu/workspace/flat-theme-free-responsive-multipurpose-site-template/modules/formulary/controller/controller_formulary.class.php:7
[14-Oct-2015 10:32:30 UTC] PHP   3. upload_files() /home/ubuntu/workspace/flat-theme-free-responsive-multipurpose-site-template/modules/formulary/controller/controller_formulary.class.php:16
[14-Oct-2015 10:32:30 UTC] PHP   4. move_uploaded_file() /home/ubuntu/workspace/flat-theme-free-responsive-multipurpose-site-template/utils/upload.php:69
[14-Oct-2015 10:32:30 UTC] PHP Warning:  move_uploaded_file(): Unable to move '/tmp/phpkUYVQK' to '../media/0.59072300 1444818750-flowers.png' in /home/ubuntu/workspace/flat-theme-free-responsive-multipurpose-site-template/utils/upload.php on line 69
[14-Oct-2015 10:32:30 UTC] PHP Stack trace:
[14-Oct-2015 10:32:30 UTC] PHP   1. {main}() /home/ubuntu/workspace/flat-theme-free-responsive-multipurpose-site-template/modules/formulary/controller/controller_formulary.class.php:0
[14-Oct-2015 10:32:30 UTC] PHP   2. alta_prod() /home/ubuntu/workspace/flat-theme-free-responsive-multipurpose-site-template/modules/formulary/controller/controller_formulary.class.php:7
[14-Oct-2015 10:32:30 UTC] PHP   3. upload_files() /home/ubuntu/workspace/flat-theme-free-responsive-multipurpose-site-template/modules/formulary/controller/controller_formulary.class.php:16
[14-Oct-2015 10:32:30 UTC] PHP   4. move_uploaded_file() /home/ubuntu/workspace/flat-theme-free-responsive-multipurpose-site-template/utils/upload.php:69
[14-Oct-2015 10:33:18 UTC] PHP Warning:  move_uploaded_file(../../media/0.84262200 1444818798-flowers.png): failed to open stream: No such file or directory in /home/ubuntu/workspace/flat-theme-free-responsive-multipurpose-site-template/utils/upload.php on line 69
[14-Oct-2015 10:33:18 UTC] PHP Stack trace:
[14-Oct-2015 10:33:18 UTC] PHP   1. {main}() /home/ubuntu/workspace/flat-theme-free-responsive-multipurpose-site-template/modules/formulary/controller/controller_formulary.class.php:0
[14-Oct-2015 10:33:18 UTC] PHP   2. alta_prod() /home/ubuntu/workspace/flat-theme-free-responsive-multipurpose-site-template/modules/formulary/controller/controller_formulary.class.php:7
[14-Oct-2015 10:33:18 UTC] PHP   3. upload_files() /home/ubuntu/workspace/flat-theme-free-responsive-multipurpose-site-template/modules/formulary/controller/controller_formulary.class.php:16
[14-Oct-2015 10:33:18 UTC] PHP   4. move_uploaded_file() /home/ubuntu/workspace/flat-theme-free-responsive-multipurpose-site-template/utils/upload.php:69
[14-Oct-2015 10:33:18 UTC] PHP Warning:  move_uploaded_file(): Unable to move '/tmp/phpNH51r7' to '../../media/0.84262200 1444818798-flowers.png' in /home/ubuntu/workspace/flat-theme-free-responsive-multipurpose-site-template/utils/upload.php on line 69
[14-Oct-2015 10:33:18 UTC] PHP Stack trace:
[14-Oct-2015 10:33:18 UTC] PHP   1. {main}() /home/ubuntu/workspace/flat-theme-free-responsive-multipurpose-site-template/modules/formulary/controller/controller_formulary.class.php:0
[14-Oct-2015 10:33:18 UTC] PHP   2. alta_prod() /home/ubuntu/workspace/flat-theme-free-responsive-multipurpose-site-template/modules/formulary/controller/controller_formulary.class.php:7
[14-Oct-2015 10:33:18 UTC] PHP   3. upload_files() /home/ubuntu/workspace/flat-theme-free-responsive-multipurpose-site-template/modules/formulary/controller/controller_formulary.class.php:16
[14-Oct-2015 10:33:18 UTC] PHP   4. move_uploaded_file() /home/ubuntu/workspace/flat-theme-free-responsive-multipurpose-site-template/utils/upload.php:69
[14-Oct-2015 11:02:47 UTC] PHP Warning:  move_uploaded_file(../../media/0.54512500 1444820567-flowers.png): failed to open stream: No such file or directory in /home/ubuntu/workspace/flat-theme-free-responsive-multipurpose-site-template/utils/upload.php on line 69
[14-Oct-2015 11:02:47 UTC] PHP Stack trace:
[14-Oct-2015 11:02:47 UTC] PHP   1. {main}() /home/ubuntu/workspace/flat-theme-free-responsive-multipurpose-site-template/modules/formulary/controller/controller_formulary.class.php:0
[14-Oct-2015 11:02:47 UTC] PHP   2. alta_prod() /home/ubuntu/workspace/flat-theme-free-responsive-multipurpose-site-template/modules/formulary/controller/controller_formulary.class.php:7
[14-Oct-2015 11:02:47 UTC] PHP   3. upload_files() /home/ubuntu/workspace/flat-theme-free-responsive-multipurpose-site-template/modules/formulary/controller/controller_formulary.class.php:16
[14-Oct-2015 11:02:47 UTC] PHP   4. move_uploaded_file() /home/ubuntu/workspace/flat-theme-free-responsive-multipurpose-site-template/utils/upload.php:69
[14-Oct-2015 11:02:47 UTC] PHP Warning:  move_uploaded_file(): Unable to move '/tmp/phpLqLwkV' to '../../media/0.54512500 1444820567-flowers.png' in /home/ubuntu/workspace/flat-theme-free-responsive-multipurpose-site-template/utils/upload.php on line 69
[14-Oct-2015 11:02:47 UTC] PHP Stack trace:
[14-Oct-2015 11:02:47 UTC] PHP   1. {main}() /home/ubuntu/workspace/flat-theme-free-responsive-multipurpose-site-template/modules/formulary/controller/controller_formulary.class.php:0
[14-Oct-2015 11:02:47 UTC] PHP   2. alta_prod() /home/ubuntu/workspace/flat-theme-free-responsive-multipurpose-site-template/modules/formulary/controller/controller_formulary.class.php:7
[14-Oct-2015 11:02:47 UTC] PHP   3. upload_files() /home/ubuntu/workspace/flat-theme-free-responsive-multipurpose-site-template/modules/formulary/controller/controller_formulary.class.php:16
[14-Oct-2015 11:02:47 UTC] PHP   4. move_uploaded_file() /home/ubuntu/workspace/flat-theme-free-responsive-multipurpose-site-template/utils/upload.php:69
